"cluster","s","ns","y_all","y_trt","y_untrt","n","avgbuilding","urban","avgalt","avgage","propwomen","avgtemp","avgrain","avgagdensity"
1,0.352941176470588,0.647058823529412,0.294117647058824,0.333333333333333,0.272727272727273,17,0.835443037974684,1,0.407,19.2405063291139,0.531645569620253,26.28848878,162.0695986,0
2,0.8,0.2,0.2,0.25,0,15,0.18018018018018,1,0.362,19.4459459459459,0.427927927927928,26.0052394812162,189.058922594595,0
3,0.518987341772152,0.481012658227848,0.177215189873418,0.117073170731707,0.242105263157895,395,3.87247437774524,0,0.315749780380673,23.5506588579795,0.527177089421391,23.4605177155593,2.93970478922021,0.276740939140996
4,1,0,0,0,0,10,0.556338028169014,1,0.448,23.0070422535211,0.5,25.26473829,227.8035262,0.23003413
5,0.5,0.5,0.357142857142857,0.285714285714286,0.428571428571429,14,1.91017964071856,1,1.171,18.4011976047904,0.544910179640719,19.41924439,196.9988784,0.018430034
6,0,1,0.666666666666667,0,0.666666666666667,9,1.51376146788991,1,1.476,22.5596330275229,0.467889908256881,21.8224843957798,163.038051898165,0.69556314
7,0.315789473684211,0.684210526315789,0,0,0,19,1.32608695652174,1,0.579,19.2717391304348,0.532608695652174,24.9569697,225.5376309,0.116040956
8,0.583333333333333,0.416666666666667,0.5,0.428571428571429,0.6,12,1.11046511627907,1,0.325,20.953488372093,0.529069767441861,25.7,208.5355962,0
9,0.685714285714286,0.314285714285714,0.2,0.208333333333333,0.181818181818182,35,3.49768160741886,0,0.410941267387944,22.2117465224111,0.523956723338485,26.0879872416229,210.537559898609,0.436895938582689
10,0.80952380952381,0.19047619047619,0.571428571428571,0.588235294117647,0.5,21,1.36231884057971,1,1.175,17.6159420289855,0.492753623188406,23.61694215,123.2252066,0.866894198
11,0.333333333333333,0.666666666666667,0,0,0,12,1.51898734177215,1,1.747,20.0886075949367,0.512658227848101,18.33559622,165.5590909,0.386348123
12,0.526315789473684,0.473684210526316,0.0526315789473684,0,0.111111111111111,19,1.91584158415842,1,1.498,20.8861386138614,0.554455445544555,21.55300275,138.0939394,0.526279863
13,0.736842105263158,0.263157894736842,0.0526315789473684,0.0714285714285714,0,19,1.06989247311828,1,0.397,18.5591397849462,0.543010752688172,25.5059679316129,216.083671996774,0.081228669
14,0.166666666666667,0.833333333333333,0.833333333333333,0,1,6,0.0350877192982456,1,1.329,23.3684210526316,0.482456140350877,22.22331759,149.8801653,0.001365188
15,0.681818181818182,0.318181818181818,0.318181818181818,0.266666666666667,0.428571428571429,22,2.81142857142857,1,0.043,19.3942857142857,0.502857142857143,25.80848485,107.2463361,0.498293515
16,0.333333333333333,0.666666666666667,0.111111111111111,0,0.166666666666667,18,3.3984962406015,0,0.468842105263158,22.5363408521303,0.541353383458647,24.8787072467669,202.073001567669,0.39181400612782
17,0.217391304347826,0.782608695652174,0.260869565217391,0.4,0.222222222222222,23,0.957983193277311,1,0.536,18.7268907563025,0.504201680672269,24.56312778,229.8410044,0.052559727
18,0,1,0.2,0,0.2,5,1.0952380952381,1,1.903,22.6857142857143,0.485714285714286,22.09651712,155.9151712,0.451194539
19,0.454545454545455,0.545454545454545,0.181818181818182,0.4,0,11,1.01863354037267,1,0.608,19.3788819875776,0.503105590062112,24.59713499,223.5592287,0.490102389
20,0.538461538461538,0.461538461538462,0.461538461538462,0.714285714285714,0.166666666666667,13,1.06976744186047,1,0.584,21.7441860465116,0.465116279069767,24.72898465,225.9232586,0.670989761
21,0.272727272727273,0.727272727272727,0.818181818181818,1,0.75,11,0.0769230769230769,1,0.357,21.1538461538462,0.484615384615385,26.32762692,132.8120425,0.033447099
22,0.333333333333333,0.666666666666667,0.666666666666667,0.5,0.75,12,1,1,0.452,20.9375,0.520833333333333,26.53748524,181.5053129,0.006143345
23,0.263157894736842,0.736842105263158,0.157894736842105,0.2,0.142857142857143,19,1.11616161616162,1,0.444,19.5050505050505,0.53030303030303,26.4387445868687,115.746843876313,0
24,0.818181818181818,0.181818181818182,0.454545454545455,0.333333333333333,1,11,0.391566265060241,1,0.595,21.0481927710843,0.506024096385542,23.99256198,274.592503,0.580887372
25,0,1,0.3,0,0.3,10,1.33663366336634,1,1.349,25.6534653465347,0.504950495049505,22.01294766,147.193719,0.323549488
26,0.538461538461538,0.461538461538462,0.538461538461538,0.285714285714286,0.833333333333333,13,1.27659574468085,1,0.655,22.5177304964539,0.460992907801418,24.67042503,225.4793388,0.498293515
27,0.166666666666667,0.833333333333333,0.166666666666667,0,0.2,6,0.444444444444444,1,0.749,24.1111111111111,0.427350427350427,24.99311295,146.8490358,0
28,0.769230769230769,0.230769230769231,0.0384615384615385,0.05,0,26,3.28219178082192,0,1.72619178082192,22.1397260273973,0.536986301369863,20.2250667134247,112.326245717808,0.331366589890411
29,0.764705882352941,0.235294117647059,0.0588235294117647,0.0769230769230769,0,17,0.382857142857143,1,0.475,19.6514285714286,0.52,25.25200708,233.281523,0.419112628
30,0.875,0.125,0,0,0,16,1.27745664739884,1,1.079,20.5260115606936,0.502890173410405,23.36958678,190.7261708,0.025938567
31,0.941176470588235,0.0588235294117647,0.294117647058824,0.3125,0,17,1.69565217391304,0,0.361,22.0628019323672,0.497652582159624,26.23030303,148.2725069,0.290102389
32,0.736842105263158,0.263157894736842,0.157894736842105,0.142857142857143,0.2,19,1.21538461538462,1,0.921,19.3384615384615,0.569230769230769,24.11341386,195.3375715,0.032764505
33,0.727272727272727,0.272727272727273,0.418181818181818,0.45,0.333333333333333,55,0.998236331569665,0.305114638447972,0.364925925925926,19.9241622574956,0.492063492063492,25.7080600921693,117.371735919224,0.167550908552028
34,0.8,0.2,0.8,0.75,1,10,1,1,1.017,21.0135135135135,0.560810810810811,22.4740623,163.4272092,0.006143345
35,0.571428571428571,0.428571428571429,0,0,0,14,2.26943005181347,1,1.88,21.4766839378238,0.55440414507772,20.84132231,140.683412,0.471672355
36,0.916666666666667,0.0833333333333334,0.5,0.545454545454545,0,12,0.947368421052632,1,0.667,18.2763157894737,0.532894736842105,23.27012987,198.4772727,0
37,0.451612903225806,0.548387096774194,0.0645161290322581,0.0714285714285714,0.0588235294117647,31,3.995670995671,0,1.52296536796537,18.9632034632035,0.558441558441558,18.6376889159091,141.615854232684,0.35649276765368
38,0.5,0.5,0.416666666666667,0.5,0.333333333333333,12,1.42176870748299,1,0.933,20.6530612244898,0.537414965986395,23.41487603,214.2975207,0.016382253
39,0.529411764705882,0.470588235294118,0.176470588235294,0.222222222222222,0.125,17,1.35057471264368,0,0.521,20.3965517241379,0.477011494252874,24.8364817,170.9262102,0.058020478
40,0.388888888888889,0.611111111111111,0.444444444444444,0.428571428571429,0.454545454545455,18,1.73118279569892,1,0.351,22.8172043010753,0.463541666666667,25.66923077,204.4347743,0
41,0.4375,0.5625,0.0625,0,0.111111111111111,16,1.22631578947368,0,0.374,21.3578947368421,0.484210526315789,26.52644628,176.9167651,0.02662116
42,0.0909090909090909,0.909090909090909,0.454545454545455,0,0.5,11,0.93956043956044,1,0.542,19.2747252747253,0.521978021978022,24.95011806,180.3955136,0
43,0.4375,0.5625,0.1875,0,0.333333333333333,16,0.958823529411765,1,0.52,22.0764705882353,0.488235294117647,24.9412736974706,205.542151307059,0.251877133
44,0.157894736842105,0.842105263157895,0.157894736842105,0,0.1875,19,1.03076923076923,1,0.354,21.3846153846154,0.558974358974359,25.8665900546154,187.052491561538,0
45,0.588235294117647,0.411764705882353,0.0588235294117647,0,0.142857142857143,17,2.18367346938776,0,0.33,20.0918367346939,0.479591836734694,25.34256198,223.072196,0.298293515
46,0.4,0.6,0.35,0.25,0.416666666666667,20,1.93298969072165,1,0.373,21.4278350515464,0.530927835051546,24.82260921,216.3058442,0.492832765
47,0.3125,0.6875,0.5625,0.4,0.636363636363636,16,1.22222222222222,1,0.54,22.1728395061728,0.537037037037037,24.70909091,189.7538371,0
48,0.294117647058824,0.705882352941176,0.647058823529412,0.4,0.75,17,1.26241134751773,1,0.908,19.7446808510638,0.524822695035461,23.09701208,240.5696122,0.009556314
49,1,0,0,0,0,14,1.16296296296296,1,0.297,20.8888888888889,0.577777777777778,26.07018436,202.7780038,0.06552901
50,0.45,0.55,0.65,0.555555555555556,0.727272727272727,20,1.74251497005988,1,0.627,19.0119760479042,0.532934131736527,24.13553719,232.1064935,0.023890785
51,0.842105263157895,0.157894736842105,0,0,0,19,0.0126582278481013,1,0.504,23.0886075949367,0.487341772151899,25.20560803,237.283294,0.225255973
52,0.666666666666667,0.333333333333333,0,0,0,3,1,1,0.476,22.3469387755102,0.503401360544218,25.34799292,222.2207792,0.003412969
53,0.928571428571429,0.0714285714285714,0,0,0,14,0.954248366013072,1,0.334,19.3398692810458,0.477124183006536,26.25844156,101.2587367,0
54,0.235294117647059,0.764705882352941,0.411764705882353,0.25,0.461538461538462,17,0.985611510791367,1,0.833,22.1798561151079,0.517985611510791,23.21086187,233.961039,0.001365188
55,0.357142857142857,0.642857142857143,0.642857142857143,0.6,0.666666666666667,14,1.05185185185185,1,0.463,23.5555555555556,0.481481481481481,26.16871311,185.4480519,0.010921502
56,0.772727272727273,0.227272727272727,0.0909090909090909,0.0588235294117647,0.2,22,1.04411764705882,1,0.573,16.9852941176471,0.509803921568627,25.60306966,180.0324675,0.034129693
57,0.8125,0.1875,0.125,0.0769230769230769,0.333333333333333,16,1.41916167664671,1,0.41,21.6287425149701,0.562874251497006,24.7712651,215.3548633,0.085324232
58,0.25,0.75,0.0625,0,0.0833333333333333,16,0.348958333333333,1,0.353,19.3385416666667,0.510416666666667,25.7312499972917,211.31038226875,0
59,0.375,0.625,0.3125,0.333333333333333,0.3,16,2.22105263157895,1,0.787,17.7842105263158,0.526315789473684,21.87136954,181.348931198947,0.467576792
60,0.625,0.375,0.5,0.6,0.333333333333333,16,1.93548387096774,1,0.809,22.4462365591398,0.516129032258065,24.61303242,225.702158026882,0.613651877
61,0.8125,0.1875,0,0,0,16,0.318435754189944,1,0.321,19.5642458100559,0.564245810055866,26.08046045,147.3760921,0
62,0.25,0.75,0.875,0.5,1,8,1,1,1.071,21.5123456790123,0.469135802469136,22.40625,238.4039773,0.108532423
63,0.3,0.7,0.1,0,0.142857142857143,10,1.35172413793103,1,0.833,19.151724137931,0.482758620689655,23.36050767,234.7030697,0.008191126
64,0.846153846153846,0.153846153846154,0.0769230769230769,0.0909090909090909,0,13,1,1,0.426,19.7393939393939,0.515151515151515,25.58996458,121.1615702,0.261433447
65,0.785714285714286,0.214285714285714,0,0,0,14,0.81767955801105,0,0.723,19.767955801105,0.552486187845304,24.31711924,218.2004132,0.353583618
66,0.375,0.625,0,0,0,16,2.49723756906077,1,1.595,18.4861878453039,0.513812154696133,18.9162911634807,176.601187840332,0.26894198
67,0.923076923076923,0.0769230769230769,0,0,0,13,1,1,1.029,19.8152173913043,0.570652173913043,22.50200708,210.1209563,0.021843003
68,0.0588235294117647,0.941176470588235,0.176470588235294,1,0.125,17,0.435028248587571,1,1.652,20.1073446327684,0.525423728813559,20.78754427,146.5693625,0.568600683
69,0.571428571428571,0.428571428571429,0.714285714285714,0.75,0.666666666666667,7,1.44827586206897,1,0.449,28.948275862069,0.5,23.80082645,250.9360685,0.492832765
70,0.357142857142857,0.642857142857143,0.428571428571429,0.4,0.444444444444444,14,0.836734693877551,1,0.401,22.8316326530612,0.51530612244898,26.16080283,178.2503542,0
71,0.611111111111111,0.388888888888889,0,0,0,18,1.76630434782609,1,1.576,16.2934782608696,0.527173913043478,20.17603306,141.5016529,0.250511945
72,0.5,0.5,0.5625,0.375,0.75,16,2.59712230215827,1,1.171,23.0935251798561,0.482014388489209,22.59622196,193.1953955,0
73,0.523809523809524,0.476190476190476,0.380952380952381,0.363636363636364,0.4,21,2.79881656804734,1,1.468,19.4201183431953,0.541176470588235,22.11184573,170.4402204,0
74,0.336842105263158,0.663157894736842,0.536842105263158,0.34375,0.634920634920635,95,3.30051813471503,0,0.619915025906736,19.6062176165803,0.519877675840979,23.9198304356166,205.68665248228,0.463771242523316
75,0.454545454545455,0.545454545454545,0,0,0,22,1.1,1,1.216,18.675,0.5,20.04806103,142.4051494,0.001365188
76,0.795918367346939,0.204081632653061,0.0204081632653061,0.0256410256410256,0,49,2.44327176781003,0.50131926121372,0.304498680738786,17.1899736147757,0.519788918205805,25.4946881909499,213.325310552243,0.216081478881266
77,0.727272727272727,0.272727272727273,0,0,0,11,0.291139240506329,1,0.929,18.6329113924051,0.518987341772152,22.89049587,216.0134593,0.033447099
78,0.814814814814815,0.185185185185185,0.0185185185185185,0.0227272727272727,0,54,4,0,1.21273519163763,19.7526132404181,0.463452566096423,22.0966780437631,243.89327854878,0.138078985857143
79,0.692307692307692,0.307692307692308,0.307692307692308,0.333333333333333,0.25,13,2.24576271186441,0,0.349,20.4110169491525,0.495762711864407,25.5992970538983,224.293459889407,0.00887372
80,0.714285714285714,0.285714285714286,0.333333333333333,0.333333333333333,0.333333333333333,21,2.14864864864865,1,0.769,18.8108108108108,0.527027027027027,23.37467532,237.4415584,0.004778157
81,0.375,0.625,0.125,0.333333333333333,0,16,0.697986577181208,1,0.391,20.4429530201342,0.503355704697987,26.0035565684564,202.862502904027,0
82,0.80952380952381,0.19047619047619,0,0,0,21,4,0,1.231,19.7905982905983,0.495726495726496,22.37396694,158.2448347,0.107167235
83,0.307692307692308,0.692307692307692,0,0,0,13,3.61904761904762,0,0.725,22.0119047619048,0.529761904761905,23.86103896,259.9459858,0.584300341
84,0,1,0.166666666666667,0,0.166666666666667,6,3.97435897435897,0,0.312,23.4294871794872,0.538461538461538,25.04025974,13.87272727,0.319453925
85,0.692307692307692,0.307692307692308,0.307692307692308,0.333333333333333,0.25,13,1.04597701149425,1,0.409,22.7241379310345,0.46551724137931,25.60247934,199.1694215,0.215017065
86,0.666666666666667,0.333333333333333,0,0,0,3,1.29059829059829,1,1.42,23.4615384615385,0.512820512820513,22.27060213,158.9374262,0.059385666
87,0.692307692307692,0.307692307692308,0.692307692307692,0.555555555555556,1,13,1.04201680672269,1,0.986,17.546218487395,0.435714285714286,22.75270184,179.214876,0.061433447
88,0.580645161290323,0.419354838709677,0.516129032258065,0.444444444444444,0.615384615384615,31,3.02337662337662,0,0.955633766233766,19.8441558441558,0.482233502538071,24.1931126424416,165.002168516104,0.27588138794026
89,0.846153846153846,0.153846153846154,0,0,0,13,1.41573033707865,1,0.633,23.2977528089888,0.539325842696629,24.72337662,217.9623377,0.466894198
90,0.538461538461538,0.461538461538462,0.615384615384615,0.714285714285714,0.5,13,1.65934065934066,1,0.217,21.3186813186813,0.472527472527473,25.64081373,112.4310235,0.281228669
91,0,1,0,0,0,11,2.37349397590361,1,1.832,22.4457831325301,0.590361445783133,18.72142857,173.4471665,0.041638225
92,0.352941176470588,0.647058823529412,0.117647058823529,0,0.181818181818182,17,0.0466321243523316,1,0.329,19.7046632124352,0.492227979274611,25.75244755,211.3856961,0
93,0.588235294117647,0.411764705882353,0.117647058823529,0,0.285714285714286,17,2.7093023255814,1,0.612,20.8081395348837,0.459302325581395,24.34303878,229.8250477,0.277133106
94,0.666666666666667,0.333333333333333,0.0666666666666667,0,0.2,15,0.148351648351648,1,0.751,21.2032967032967,0.538461538461538,24.3676584,218.1052893,0.175426621
95,0.363636363636364,0.636363636363636,0,0,0,11,1.83522727272727,0,1.76,19.4488636363636,0.477272727272727,21.64651712,135.863046,0.752901024
96,0.3125,0.6875,0,0,0,16,3.9025641025641,0,0.557,20.7538461538462,0.569230769230769,25.04775679,108.7995868,0.291467577
97,0.0952380952380952,0.904761904761905,0.19047619047619,0.5,0.157894736842105,21,1,1,0.44,22,0.545454545454545,25.77316804,217.7961433,0.000682594
98,0.533333333333333,0.466666666666667,0.533333333333333,0.375,0.714285714285714,15,1.61087866108787,0,0.418,20.4979079497908,0.531380753138075,25.55283747,143.1911846,0.103754266
99,0.791666666666667,0.208333333333333,0.208333333333333,0.210526315789474,0.2,24,2.89920424403183,0,1.1840848806366,21.3899204244032,0.507853403141361,21.4457497,134.0170602,0.557720824718833
100,0.466666666666667,0.533333333333333,0.533333333333333,0.428571428571429,0.625,15,1.17857142857143,1,0.395,20.0833333333333,0.494047619047619,26.67874852,190.7467532,0.032081911
101,0.761904761904762,0.238095238095238,0,0,0,21,1.064039408867,1,0.792,19.2266009852217,0.522167487684729,23.85974026,188.10732,0.198634812
102,0.5,0.5,0.125,0,0.25,16,0.636363636363636,1,0.723,20.8806818181818,0.505681818181818,25.03512397,190,0.165870307
103,0.5,0.5,0.1,0,0.2,10,3.03428571428571,1,0.776,18.7371428571429,0.468571428571429,22.0744392,200.4743802,0.137883959
104,0.833333333333333,0.166666666666667,0.25,0.3,0,12,1.30625,1,0.387,22.7875,0.54375,25.50550964,200.3427548,0.101706485
105,0,1,0,0,0,16,0.621428571428571,1,1.896,22.1857142857143,0.521428571428571,22.21989828,156.1558805,0.716723549
106,1,0,0.0769230769230769,0.0769230769230769,0,13,0.525974025974026,1,0.394,21.9090909090909,0.519480519480519,24.94761602,238.3959949,0.292832765
107,0.375,0.625,0.75,0.666666666666667,0.8,16,1.06179775280899,1,0.569,23.7247191011236,0.5,24.71570248,188.9408773,0.003412969
108,1,0,0.181818181818182,0.181818181818182,0,11,3.85,0,0.147,23.6111111111111,0.516666666666667,25.26082645,120.2094766,0.179522184
109,0.3,0.7,0.5,0.333333333333333,0.571428571428571,10,1.27972027972028,1,1.017,22.9230769230769,0.48951048951049,23.21487603,200.5177096,0.036860068
110,0.25,0.75,0.375,1,0.166666666666667,8,1.9112426035503,0,1.347,18.7633136094675,0.532163742690059,24.1122196,118.1454545,0.987713311
111,0.6875,0.3125,0.4375,0.363636363636364,0.6,16,0.295454545454545,1,0.365,16.6647727272727,0.482954545454545,25.91841795,214.1263282,0
112,0.666666666666667,0.333333333333333,0.666666666666667,0.625,0.75,24,1.09025270758123,1,0.821,18.2274368231047,0.505415162454874,24.97957497,173.4468713,0.032764505
113,0.833333333333333,0.166666666666667,0.333333333333333,0.3,0.5,12,1.55714285714286,1,0.535,21.4785714285714,0.471428571428571,25.06624285,217.785124,0.750170648
114,0.444444444444444,0.555555555555556,0.111111111111111,0,0.2,9,1.77777777777778,1,0.845,20.9590643274854,0.56140350877193,23.36434475,235.0625738,0.055972696
115,0.5,0.5,0.0909090909090909,0.0909090909090909,0.0909090909090909,22,0.951086956521739,1,0.515,19.429347826087,0.548913043478261,25.61883117,224.2363636,0.268259386
116,0.333333333333333,0.666666666666667,0.777777777777778,0.833333333333333,0.75,18,0.971830985915493,1,0.372,21.612676056338,0.528169014084507,25.71933884,113.7321212,0.080546075
117,0.928571428571429,0.0714285714285714,0,0,0,14,0.775280898876405,1,0.722,19.3539325842697,0.48876404494382,24.25395514,188.4724911,0.444368601
118,0.823529411764706,0.176470588235294,0.176470588235294,0.214285714285714,0,17,1.04938271604938,1,0.428,21.2098765432099,0.512345679012346,25.94480519,96.16038961,0.01774744
119,0.375,0.625,0.0625,0,0.1,16,0.078740157480315,1,0.313,18.6929133858268,0.535433070866142,26.32536554,185.9045137,0.001365188
120,0.5625,0.4375,0,0,0,16,1.19230769230769,1,0.579,20.3974358974359,0.448717948717949,25.05661157,232.2884298,0
121,0.333333333333333,0.666666666666667,0.266666666666667,0.4,0.2,15,1.53424657534247,1,0.886,19.7123287671233,0.527397260273973,24.86157025,123.4708973,0.006143345
122,0.538461538461538,0.461538461538462,0.692307692307692,0.571428571428571,0.833333333333333,13,1,1,0.587,25.4736842105263,0.511278195488722,23.59144038,209.6576151,0.016382253
123,0.391304347826087,0.608695652173913,0,0,0,23,1.6839378238342,0,1.764,21.3989637305699,0.518134715025907,21.11818182,137.6214876,0.885324232
124,0.823529411764706,0.176470588235294,0.235294117647059,0.214285714285714,0.333333333333333,17,1.24878048780488,1,0.336,21.0341463414634,0.478048780487805,25.53081464,197.4139315,0.100341297
125,0.947368421052632,0.0526315789473685,0,0,0,19,0.0939597315436242,1,0.991,19.5234899328859,0.536912751677852,22.37809917,194.3256198,0.014334471
126,0.785714285714286,0.214285714285714,0,0,0,14,3.85576923076923,1,1.919,21.4086538461538,0.480769230769231,18.77780401,207.5748524,0.585665529
127,0.857142857142857,0.142857142857143,0.642857142857143,0.583333333333333,1,14,1.05847953216374,1,0.689,18.9298245614035,0.526315789473684,24.43349862,173.9179063,0.027303754
128,0.7,0.3,0.45,0.357142857142857,0.666666666666667,20,1.23762376237624,1,0.874,18.7772277227723,0.52970297029703,24.42545455,181.1625344,0.163822526
129,0.411764705882353,0.588235294117647,0.411764705882353,0.285714285714286,0.5,17,1.48989898989899,1,0.873,21.0252525252525,0.54040404040404,24.2123482772727,135.683987792424,0.018430034
130,0.866666666666667,0.133333333333333,0.333333333333333,0.384615384615385,0,15,2.73053892215569,0,0.321,21.502994011976,0.48502994011976,25.30534011,223.541068,0.092832765
131,0.714285714285714,0.285714285714286,0,0,0,14,1.91566265060241,1,1.692,20.355421686747,0.506024096385542,19.3018606673494,194.841482261446,0.739249147
132,0.285714285714286,0.714285714285714,0.0476190476190476,0.166666666666667,0,21,1.02727272727273,1,0.59,17.7,0.527272727272727,25.1393595,226.2342459,0.090784983
133,0.588235294117647,0.411764705882353,0.0588235294117647,0,0.142857142857143,17,1.64285714285714,1,0.388,18.7362637362637,0.505494505494505,25.82561983,203.8191263,0.066894198
134,0.333333333333333,0.666666666666667,0.25,0.25,0.25,12,1.16666666666667,1,0.612,21.2,0.444444444444444,24.29687131,229.2730224,0.121501706
135,0.473684210526316,0.526315789473684,0.315789473684211,0.333333333333333,0.3,19,2.1125,1,0.876,18.125,0.5375,23.14864227,240.2715466,0.007508532
136,0.105263157894737,0.894736842105263,0.0526315789473684,0.5,0,19,1.39366515837104,1,0.635,18.1447963800905,0.515837104072398,24.34338843,209.6602715,0.021843003
137,0.7,0.3,0.2,0.285714285714286,0,10,0.943661971830986,1,0.318,20.0211267605634,0.457746478873239,25.5830303,222.5618182,0.179522184
138,0.555555555555556,0.444444444444444,0.0740740740740741,0.0666666666666667,0.0833333333333333,27,1.01716738197425,1,0.352,17.6695278969957,0.55793991416309,26.29486423,138.0813459,0.155631399
139,0.2,0.8,0.2,0,0.25,15,2.75555555555556,0,0.657,16.7277777777778,0.522222222222222,24.9245391,223.6249205,0.505119454
140,1,0,0.166666666666667,0.166666666666667,0,12,0.311475409836066,1,0.502,22.7622950819672,0.516393442622951,25.18111888,113.1150668,0.039590444
141,0.178571428571429,0.821428571428571,0.535714285714286,0.6,0.521739130434783,28,1.35828877005348,1,0.752,17.0695187165775,0.53475935828877,23.52910272,239.5247934,0.002047782
142,0.1875,0.8125,0.875,0.666666666666667,0.923076923076923,16,1.29761904761905,1,1.152,20.1904761904762,0.5,22.86060606,155.4423691,0.958361775
143,0.260869565217391,0.739130434782609,0,0,0,23,0.984375,1,0.403,18.9947916666667,0.46875,26.40401417,162.9025974,0.010238908
144,0.904761904761905,0.0952380952380952,0,0,0,21,2.42176870748299,1,1.232,22.1360544217687,0.485207100591716,21.27066116,185.7053719,0.020477816
145,0.476190476190476,0.523809523809524,0.285714285714286,0.2,0.363636363636364,21,2.67647058823529,1,0.638,18.1260504201681,0.584033613445378,24.1770408164286,148.835250421429,0.429351536
146,0.272727272727273,0.727272727272727,0.272727272727273,0,0.375,22,1,1,0.632,19.7262569832402,0.536312849162011,23.91404959,232.5785124,0.23003413
147,0.166666666666667,0.833333333333333,0.666666666666667,0.666666666666667,0.666666666666667,18,1.13084112149533,1,0.606,19.8551401869159,0.518691588785047,24.76658058,187.4385331,0.014334471
148,0.444444444444444,0.555555555555556,0.277777777777778,0.25,0.3,18,2.44117647058824,1,0.671,18.8025210084034,0.504201680672269,23.2474026,140.7019481,0.006143345
149,0.2,0.8,0,0,0,20,3.91445427728614,0,0.168778761061947,22.8200589970501,0.530973451327434,25.6744407680531,40.2308485965487,0.433948473106195
150,0.37037037037037,0.62962962962963,0.592592592592593,0.4,0.705882352941177,27,1.47826086956522,1,0.684,18.7739130434783,0.565217391304348,24.62768595,193.4710744,0.132423208
151,0.9375,0.0625,0,0,0,16,1.28834355828221,0,0.399,22.2699386503067,0.558282208588957,25.58335301,207.9298701,0.30443686
152,0.235294117647059,0.764705882352941,0.352941176470588,0.5,0.307692307692308,17,0.513227513227513,1,0.314,20.8465608465608,0.497354497354497,25.5,206.9030515,0.000682594
153,0.333333333333333,0.666666666666667,0,0,0,9,1.13559322033898,1,0.571,21.3220338983051,0.466101694915254,26.2815520367797,204.221543598305,0
154,0.4375,0.5625,0.0625,0.142857142857143,0,16,1.77181208053691,1,1.64,20.6442953020134,0.496644295302013,20.18253444,164.1067769,0.020477816
155,0.454545454545455,0.545454545454545,0.363636363636364,0.2,0.5,22,0.887005649717514,1,1.256,18.9039548022599,0.491525423728814,18.81174734,190.9595632,0.213651877
156,0.538461538461538,0.461538461538462,0.615384615384615,0.571428571428571,0.666666666666667,13,2.51315789473684,1,0.317,23.3684210526316,0.453947368421053,25.00519481,127.9075561,0.184300341
157,0.6875,0.3125,0.625,0.636363636363636,0.6,16,2.56353591160221,1,0.22,23.2817679558011,0.524861878453039,26.48246753,148.7766234,0.114675768
158,0.25,0.75,0.1875,0,0.25,16,1.37278106508876,1,0.654,20.2721893491124,0.473372781065089,23.5107438,150.7382708,0
159,0.333333333333333,0.666666666666667,0.666666666666667,0.8,0.6,15,1.3030303030303,1,0.906,20.0969696969697,0.436363636363636,23.60047226,241.9775679,0.345392491
160,0.628571428571429,0.371428571428571,0.457142857142857,0.363636363636364,0.615384615384615,35,2.61961722488038,0,0.863755980861244,18.8038277511962,0.519138755980861,25.070829212201,153.406337019139,0.24649149991866
161,0,1,0.5,0,0.5,2,0.672131147540984,1,0.72,24.5819672131148,0.483606557377049,24.15013774,189.3825344,0.00887372
162,0.318181818181818,0.681818181818182,0.181818181818182,0,0.266666666666667,22,1.07339449541284,1,0.597,19.0321100917431,0.532110091743119,24.56233766,210.0993506,0.036177474
163,0.846153846153846,0.153846153846154,0,0,0,13,0.0423728813559322,1,0.576,22.0593220338983,0.533898305084746,24.8120425,250.1101535,0.126279863
164,0.648648648648649,0.351351351351351,0.405405405405405,0.416666666666667,0.384615384615385,37,0.819277108433735,0,0.413626506024096,17.8939759036145,0.472289156626506,25.8999395348434,246.626448560723,0.147971544906024
165,0.8125,0.1875,0.0625,0.0769230769230769,0,16,1,1,0.361,18.3207547169811,0.484276729559748,25.99940968,76.68022432,0.016382253
166,0.0714285714285714,0.928571428571429,0.642857142857143,1,0.615384615384615,14,1.01315789473684,1,0.417,22.1842105263158,0.480263157894737,25.38545455,48.73922865,0.033447099
167,0,1,0.25,0,0.25,12,1.03846153846154,1,0.643,21.6217948717949,0.467948717948718,24.30749705,192.0023613,0.018430034
168,0.333333333333333,0.666666666666667,0.0555555555555556,0,0.0833333333333333,18,1.06,1,0.336,16.765,0.502463054187192,26.20289256,144.6347107,0.040273038
169,0.55,0.45,0.5,0.454545454545455,0.555555555555556,20,1.44973544973545,0,0.408,19.7037037037037,0.497354497354497,26.41127509,202.4380165,0
170,0.583333333333333,0.416666666666667,0.25,0.285714285714286,0.2,12,0.145161290322581,1,0.327,18.8870967741935,0.612903225806452,26.72012987,177.9016529,0
171,0.545454545454545,0.454545454545455,0.636363636363636,0.666666666666667,0.6,11,1.41610738255034,0,0.566,21.1677852348993,0.496644295302013,24.5674144,184.4557261,0.044368601
172,0.769230769230769,0.230769230769231,0,0,0,13,0.202702702702703,1,0.743,17.5743243243243,0.554054054054054,24.05791027,241.479575,0.096245734
173,0.85,0.15,0.65,0.588235294117647,1,20,1.19727891156463,1,0.304,18.4353741496599,0.435374149659864,25.49779614,215.1398347,0.076450512
174,0.8,0.2,0,0,0,15,0.0342857142857143,1,0.744,19.6857142857143,0.525714285714286,24.1731405,260.3958678,0.03890785
175,0.608695652173913,0.391304347826087,0.0434782608695652,0.0714285714285714,0,23,0.106145251396648,1,0.358,18.7374301675978,0.540983606557377,26.08347107,119.6321724,0.063481229
176,0.48,0.52,0.68,0.75,0.615384615384615,25,1.30543933054393,1,0.615,17.9372384937239,0.497907949790795,24.93170012,194.242621,0.26894198
177,0.933333333333333,0.0666666666666667,0.133333333333333,0.142857142857143,0,15,2.11111111111111,0,0.762522522522523,23.6726726726727,0.519444444444444,24.8791604384384,228.694233562462,0.0804374339129129
178,0.285714285714286,0.714285714285714,0.285714285714286,0,0.4,7,0.835820895522388,1,1.264,23.865671641791,0.641791044776119,23.55489965,212.7880756,0.000682594
179,0.947368421052632,0.0526315789473685,0.105263157894737,0.0555555555555556,1,19,1.09876543209877,1,0.463,21.1111111111111,0.512345679012346,25.06050767,220.3915584,0.189761092
180,0.6,0.4,0.4,0.533333333333333,0.2,25,1.36796536796537,0,0.389,19.0735930735931,0.510822510822511,26.20839161,78.39237127,0.227303754
181,0.125,0.875,0.0833333333333333,0,0.0952380952380952,24,1.04787234042553,1,0.764,17.3617021276596,0.543589743589744,23.74192837,236.2997245,0.050511945
182,0.952380952380952,0.0476190476190477,0.0476190476190476,0.05,0,21,1,1,0.315,17.746835443038,0.487341772151899,25.63134593,241.1797521,0.391808874
183,0.333333333333333,0.666666666666667,0.611111111111111,0.166666666666667,0.833333333333333,18,3.33802816901408,0,1.307,19.4553990610329,0.497652582159624,21.8001771,274.5011806,0.012969283
184,0.4,0.6,0.666666666666667,0.666666666666667,0.666666666666667,15,1.22,1,0.996,21.7466666666667,0.526666666666667,25.06517119,33.15242031,0.092832765
185,0.555555555555556,0.444444444444444,0.611111111111111,0.5,0.75,18,2.31,1,0.619,19.12,0.51,23.80082645,235.1570248,0.399317406
186,0.695652173913043,0.304347826086957,0.0434782608695652,0.0625,0,23,2.99598393574297,0,0.592,18.289156626506,0.538152610441767,24.70438652,163.7031151,0.166552901
187,0.625,0.375,0.1875,0.1,0.333333333333333,16,0.759776536312849,1,0.383,19.8268156424581,0.519553072625698,25.9922314,195.2413774,0
188,0.533333333333333,0.466666666666667,0.533333333333333,0.5,0.571428571428571,15,1.35384615384615,1,0.838,19.2205128205128,0.466666666666667,23.55643447,245.0649351,0.147440273
189,0.454545454545455,0.545454545454545,0.909090909090909,0.8,1,11,0.821705426356589,1,0.629,27.1782945736434,0.503875968992248,23.319505689845,152.360158072093,0.565187713
190,0.523809523809524,0.476190476190476,0.142857142857143,0.181818181818182,0.1,21,0.537777777777778,1,0.564,19.5555555555556,0.511111111111111,25.55454545,214.5772727,0.114675768
191,0.818181818181818,0.181818181818182,0.272727272727273,0.222222222222222,0.5,11,1.496,1,0.664,23.288,0.488,23.68606848,273.8046045,0.593856655
192,0.583333333333333,0.416666666666667,0,0,0,12,1.8,1,1.842,19.7473684210526,0.526315789473684,18.74226682,147.950059,0.26894198
193,0.5,0.5,0.416666666666667,0.166666666666667,0.666666666666667,12,1.66467065868263,0,0.474,19.7664670658683,0.562874251497006,25.58787879,223.9961433,0.368600683
194,1,0,0.0555555555555556,0.0555555555555556,0,18,0.575949367088608,1,0.817,19.5506329113924,0.525316455696203,24.0122196,225.0824085,0.492150171
195,0.818181818181818,0.181818181818182,0,0,0,11,2.22155688622754,1,1.98,22.8682634730539,0.580838323353293,18.77119244,202.3794569,0.604095563
196,0.5,0.5,0.6875,0.625,0.75,16,2.63736263736264,0,1.098,21.956043956044,0.532967032967033,21.91487603,132.3380165,0.308532423
197,0.714285714285714,0.285714285714286,0.428571428571429,0.5,0.25,14,1.8125,1,0.751,20.8472222222222,0.493055555555556,23.95165289,164.1646989,0
198,0.944444444444444,0.0555555555555556,0.5,0.470588235294118,1,18,0.371584699453552,1,0.417,18.8142076502732,0.513661202185792,25.43423849,97.6068477,0.000682594
199,0.740740740740741,0.259259259259259,0,0,0,27,2.33818181818182,1,0.54132,24.4618181818182,0.552727272727273,24.8810271576,158.747851208,0.29602730368
200,0.555555555555556,0.444444444444444,0.666666666666667,0.8,0.5,9,1.77439024390244,1,0.971,23.280487804878,0.523809523809524,23.56942149,208.8644628,0.012286689
201,0.846153846153846,0.153846153846154,0.461538461538462,0.363636363636364,1,13,1.18709677419355,1,0.689,21.8258064516129,0.561290322580645,21.93966942,182.6280992,0.090102389
202,0.15,0.85,0.7,0.666666666666667,0.705882352941177,20,1,1,0.593,17.3163265306122,0.530612244897959,24.72680047,221.7355372,0.082593857
203,0.888888888888889,0.111111111111111,0.111111111111111,0,1,9,0.891472868217054,1,0.55,23.2480620155039,0.542635658914729,25.13736718,219.7587957,0.240955631
204,0.25,0.75,0.916666666666667,1,0.888888888888889,12,0.748603351955307,1,0.418,22.8826815642458,0.508379888268156,25.86918536,171.0720189,0.009556314
205,0.422222222222222,0.577777777777778,0.125925925925926,0.12280701754386,0.128205128205128,135,3.8524984948826,0,0.627963275135461,18.4726068633353,0.500598086124402,25.0463969410536,197.67485149416,0.485970251131848
206,0.75,0.25,0,0,0,20,3.67619047619048,0,1.123,18.1857142857143,0.485714285714286,24.12077135,115.1862259,0.12559727
207,0.769230769230769,0.230769230769231,0,0,0,13,3.91949152542373,0,1.34,21.6822033898305,0.504237288135593,21.80879575,248.135183,0.03003413
208,0.25,0.75,0.25,0.333333333333333,0.222222222222222,12,3.27586206896552,0,0.71,19.2988505747126,0.545977011494253,24.66204704,228.2708201,0.589078498
209,0.65,0.35,0.85,0.923076923076923,0.714285714285714,20,1,1,0.72,20.752808988764,0.51123595505618,25.15829201,177.9212121,0.27440273
210,0.5625,0.4375,0.75,0.555555555555556,1,16,1.38636363636364,1,0.758,21.5606060606061,0.507575757575758,24.26579784,234.2301335,0.203412969
211,0.818181818181818,0.181818181818182,0,0,0,11,1.97916666666667,1,0.967,21.46875,0.489583333333333,24.38181818,190.4244392,0.034812287
212,0.2,0.8,0.2,0.666666666666667,0.0833333333333333,15,0.823899371069182,1,0.922,18.5094339622642,0.572327044025157,24.52371265,127.5267641,0.054607509
213,0.5625,0.4375,0.375,0.333333333333333,0.428571428571429,16,1.38036809815951,1,0.657,18.7300613496933,0.515337423312883,23.41404959,259.2942149,0.431399317
214,0.5,0.5,0.833333333333333,0.833333333333333,0.833333333333333,12,0.658682634730539,1,1.162,20.6407185628743,0.467065868263473,22.33400236,157.2101535,0
215,0.631578947368421,0.368421052631579,0.368421052631579,0.333333333333333,0.428571428571429,19,1,1,0.923,17.5777777777778,0.505555555555556,24.06735537,186.161157,0.093515358
216,0.933333333333333,0.0666666666666667,0.4,0.357142857142857,1,15,1.51776649746193,0,0.531,19.8274111675127,0.436619718309859,24.20454545,146.207438,0.03890785
217,0.764705882352941,0.235294117647059,0.294117647058824,0.307692307692308,0.25,17,3.28729281767956,0,1.273,18.5359116022099,0.535911602209945,22.39480519,157.8831169,0.116723549
218,0.529411764705882,0.470588235294118,0.117647058823529,0.111111111111111,0.125,17,2.11261261261261,0,0.738,18.3783783783784,0.468468468468468,24.51176097,165.7174189,0.177474403
219,1,0,0,0,0,7,2.85185185185185,1,0.616,24.2222222222222,0.450704225352113,24.51454545,163.5539945,0.216382253
220,0.583333333333333,0.416666666666667,0.5,0.714285714285714,0.2,12,2.56111111111111,0,0.407,21.5277777777778,0.444444444444444,25.49634002,229.9026564,0.189078498
221,0.5,0.5,0.3125,0.25,0.375,16,0.954285714285714,1,0.381,20.6057142857143,0.548571428571429,26.42355372,89.57355372,0
222,0.588235294117647,0.411764705882353,0.294117647058824,0.3,0.285714285714286,17,1.56281407035176,0,0.588,19.1658291457286,0.527638190954774,25.01948052,177.9155844,0.032081911
223,1,0,0.2,0.2,0,15,0.957575757575758,1,0.455,20.0484848484848,0.563636363636364,24.66062574,259.1459858,0.1221843
224,0.666666666666667,0.333333333333333,0.208333333333333,0.1875,0.25,24,2.00625,1,1.229,17.3875,0.55,23.93998729,119.3326128,0.99112628
225,1,0,0,0,0,4,3.64516129032258,0,0.192,25.4354838709677,0.483870967741935,24.65985832,162.500059,0.621843003
226,0.166666666666667,0.833333333333333,0.916666666666667,1,0.9,12,1.40796019900498,1,1.049,19.452736318408,0.482587064676617,25.38958678,119.6741047,0.900341297
227,0.428571428571429,0.571428571428571,0.0952380952380952,0.222222222222222,0,21,2.225,1,1.621,16.41,0.495,18.46345927,200.2938017,0.367235495
228,1,0,0.4,0.4,0,10,1.0875,1,0.436,20.25,0.5,25.25844156,101.1818182,0.17883959
229,0.2,0.8,0.4,1,0.25,10,1,1,0.497,23.9769230769231,0.469230769230769,25.78677686,197.0182999,0
230,0.0666666666666667,0.933333333333333,0,0,0,15,2.50980392156863,1,1.749,22.3676470588235,0.544117647058823,21.48099174,136.3319559,0.358361775
231,0.444444444444444,0.555555555555556,0.0555555555555556,0.125,0,18,1.46951219512195,1,1.911,20.469512195122,0.560975609756098,18.37125148,191.4087958,0.370648464
232,0.235294117647059,0.764705882352941,0,0,0,17,1.32911392405063,1,0.366,18.9303797468354,0.468354430379747,26.31239669,143.5387913,0.000682594
233,0.375,0.625,0.4375,0.333333333333333,0.5,32,1.94520547945205,0.561643835616438,0.637835616438356,20.675799086758,0.309782608695652,25.2571639,194.75133049726,0.595857684041096
234,0.785714285714286,0.214285714285714,0.571428571428571,0.545454545454545,0.666666666666667,14,0.12565445026178,0,0.378,21.1570680628272,0.507853403141361,25.87863046,86.63364817,0.156996587
235,0.777777777777778,0.222222222222222,0.166666666666667,0.142857142857143,0.25,18,1.34408602150538,1,0.749,18.8118279569892,0.532258064516129,24.71192444,198.1859504,0.28668942
236,0.75,0.25,0.25,0.222222222222222,0.333333333333333,12,3.96256684491979,0,0.034,20.2673796791444,0.470588235294118,26.18724911,32.37821724,0.604095563
237,0.310344827586207,0.689655172413793,0.275862068965517,0.444444444444444,0.2,29,1.62569832402235,0.379888268156425,0.308860335195531,18.9162011173184,0.467213114754098,25.4569734788268,203.139978713966,0.0361507807597765
238,0.1,0.9,0.375,0,0.416666666666667,40,2.32315521628499,0,0.800488549618321,18.9363867684478,0.486005089058524,24.3621236165649,222.513626928244,0.642774144763359
239,0.352941176470588,0.647058823529412,0.117647058823529,0,0.181818181818182,17,0.230769230769231,1,1.529,22.0538461538462,0.584615384615385,20.27212121,184.8782369,0.049146758
240,0.8,0.2,0.266666666666667,0.166666666666667,0.666666666666667,15,2.58823529411765,0,0.865,20.4470588235294,0.623529411764706,23.67922078,240.3051948,0.175426621
241,0.3125,0.6875,0,0,0,16,2.05208333333333,1,1.887,21.1927083333333,0.536458333333333,20.8387794,192.5431659,0.793174061
242,0.571428571428571,0.428571428571429,0.357142857142857,0.375,0.333333333333333,14,3.21164021164021,0,0.869,20.978835978836,0.497354497354497,23.640732,243.9551358,0.214334471
243,0.55,0.45,0.65,0.727272727272727,0.555555555555556,20,1.07359307359307,1,0.862,19.5194805194805,0.480519480519481,24.64090909,195.301889,0.01774744
244,0.5,0.5,0.277777777777778,0.333333333333333,0.222222222222222,18,1.16279069767442,1,0.533,20.6918604651163,0.540697674418605,25.54763872,204.6031287,0
245,0.714285714285714,0.285714285714286,0.214285714285714,0.3,0,14,1.37820512820513,1,0.681,17.9551282051282,0.557692307692308,25.29362456,162.770366,0.162457338
246,0.166666666666667,0.833333333333333,0.222222222222222,0.333333333333333,0.2,18,0.141935483870968,1,0.743,21.3225806451613,0.567741935483871,24.91198347,145.8293979,0.005460751
247,0.538461538461538,0.461538461538462,0.384615384615385,0.428571428571429,0.333333333333333,13,1.26842105263158,0,0.362,22.2842105263158,0.505263157894737,26.30354191,178.7554309,0.003412969
248,0.684210526315789,0.315789473684211,0,0,0,19,1.06779661016949,1,0.541,19.8587570621469,0.564971751412429,25.08943329,232.6195396,0.006143345
249,0.619047619047619,0.380952380952381,0.761904761904762,0.692307692307692,0.875,21,1,1,0.58,15.4166666666667,0.523809523809524,24.92030697,189.7892562,0.197952218
250,0.636363636363636,0.363636363636364,0.272727272727273,0.428571428571429,0,11,1.48623853211009,0,1.127,25.8348623853211,0.504587155963303,21.36121606,162.6622196,0.806143345
251,0.470588235294118,0.529411764705882,0.647058823529412,0.875,0.444444444444444,17,3.32947976878613,1,0.7,21.8901734104046,0.514450867052023,24.96286895,51.72550177,0
252,0.608695652173913,0.391304347826087,0.217391304347826,0.214285714285714,0.222222222222222,23,0.707317073170732,1,0.424,18.2032520325203,0.479674796747967,25.9931523,140.3742621,0.150170648
253,0.0625,0.9375,0.3125,0,0.333333333333333,16,1.09547738693467,1,0.583,21.035175879397,0.487437185929648,24.00507674,167.3789847,0.001365188
254,0.666666666666667,0.333333333333333,0,0,0,12,1.11428571428571,1,0.405,19.6285714285714,0.474285714285714,26.58140496,180.3801653,0.16109215
255,0,1,0.1,0,0.1,10,0.241758241758242,1,0.579,19.8791208791209,0.532967032967033,23.79988194,236.087013,0.012286689
256,0.333333333333333,0.666666666666667,0.888888888888889,1,0.833333333333333,9,1.048,1,0.531,22.448,0.464,25.33376623,32.02922078,0
257,0.75,0.25,0.25,0.166666666666667,0.5,16,1.97802197802198,0,0.31,21.6263736263736,0.565934065934066,25.57832168,222.2788303,0.110580205
258,0.352941176470588,0.647058823529412,0.176470588235294,0,0.272727272727273,17,1.14201183431953,1,0.663,20.7633136094675,0.502958579881657,24.307906081716,198.116177508284,0.013651877
259,0.210526315789474,0.789473684210526,0.0526315789473684,0.25,0,19,0.951388888888889,1,0.637,21.9930555555556,0.506944444444444,24.80330579,219.0395514,0.529692833
260,0.466666666666667,0.533333333333333,0.0333333333333333,0,0.0625,30,3.93658536585366,0,1.45378536585366,19.3487804878049,0.446601941747573,22.9490036546341,76.7079923365122,0.125454091114634
261,0.578125,0.421875,0.1875,0.162162162162162,0.222222222222222,64,2.46332518337408,0,0.468352078239609,19.8679706601467,0.487775061124694,25.369517757335,191.178028994377,0.402045278273839
262,0.5,0.5,0.0714285714285714,0.142857142857143,0,14,0.738693467336683,1,0.366,20.0804020100502,0.50251256281407,26.1266592674874,123.317148311206,0
263,0.5,0.5,0.5,0.5,0.5,16,0.96,1,0.685,19.7485714285714,0.502857142857143,25.45272727,186.3955923,0.092150171
264,0.461538461538462,0.538461538461538,0,0,0,26,3.86129753914989,0,1.59444071588367,22.8769574944072,0.494646680942184,18.7812161102237,152.659731265772,0.393726855659955
265,0.470588235294118,0.529411764705882,0.0588235294117647,0,0.111111111111111,17,1.13432835820896,1,1.105,21.1940298507463,0.462686567164179,21.36363636,194.7402597,0.110580205
266,0.636363636363636,0.363636363636364,0,0,0,11,1.23152709359606,1,0.585,18.9064039408867,0.512315270935961,25.10177096,211.7544274,0.305802048
267,0.263157894736842,0.736842105263158,0.263157894736842,0.4,0.214285714285714,19,1.09580838323353,1,0.655,20.7365269461078,0.473053892215569,25.4556172192814,183.71473464491,0.473037543
268,0.636363636363636,0.363636363636364,0,0,0,11,3.08021390374332,0,1.871,22.8181818181818,0.515463917525773,18.91090909,146.9432507,0.518088737
269,0.4375,0.5625,0.5,0.142857142857143,0.777777777777778,16,1.84186046511628,0,0.56,19.9302325581395,0.474418604651163,25.19867769,172.1326171,0.171331058
270,0.357142857142857,0.642857142857143,0.714285714285714,0.6,0.777777777777778,14,1.1741935483871,1,0.923,20.1935483870968,0.509677419354839,25.00165289,99.87933884,0.009556314
271,0.5,0.5,0.857142857142857,1,0.714285714285714,14,1.28571428571429,1,0.766,19.9675324675325,0.545454545454545,24.12479339,236.7323586,0.13105802
272,0.75,0.25,0,0,0,12,1,1,0.83,21.6521739130435,0.492753623188406,23.26635183,189.1058442,0.00887372
273,0.625,0.375,0.625,0.5,0.833333333333333,16,0.720779220779221,1,0.417,20.4285714285714,0.474025974025974,26.19338843,92.54126722,0
274,0.52,0.48,0,0,0,25,1.0625,1,0.375,16.984375,0.4375,26.75884298,114.4609917,0
275,0.416666666666667,0.583333333333333,0.541666666666667,0.5,0.571428571428571,24,1.05555555555556,1,0.429,17.1166666666667,0.527777777777778,26.39415584,79.64805195,0
276,0.727272727272727,0.272727272727273,0.0454545454545455,0.0625,0,22,0.0514285714285714,1,0.654,19.0685714285714,0.528089887640449,23.82917991,242.6106167,0.002047782
277,0.0588235294117647,0.941176470588235,0.0588235294117647,0,0.0625,17,0,1,1.313,18.6338028169014,0.47887323943662,19.18996458,179.3532468,0.016382253
278,0.375,0.625,0.1875,0.333333333333333,0.1,16,0.929824561403509,1,0.548,21.0350877192982,0.526315789473684,25.07107438,173.5743802,0
279,0.375,0.625,0.8125,0.833333333333333,0.8,16,1.53333333333333,1,0.696,17.9641025641026,0.466666666666667,24.77697757,197.7390791,0.193174061
280,0.941176470588235,0.0588235294117647,0,0,0,17,1.81005586592179,1,2.003,20.5865921787709,0.519553072625698,18.88671783,190.7978158,0.696928328
281,0.352941176470588,0.647058823529412,0.235294117647059,0.333333333333333,0.181818181818182,17,1.18848167539267,1,0.437,20.1623036649215,0.50261780104712,26.06399055,209.3051948,0.003412969
282,0.666666666666667,0.333333333333333,0,0,0,18,0.942583732057416,1,0.391,18.2296650717703,0.473684210526316,26.57736809,94.28404323,0.002730375
283,0.8,0.2,0.2,0.125,0.5,10,3.61585365853659,0,0.326,20.640243902439,0.554878048780488,25.32201889,237.7197757,0.369283276
284,0.857142857142857,0.142857142857143,0.0714285714285714,0.0833333333333333,0,14,0.83030303030303,1,0.363,21.6242424242424,0.515151515151515,26.05224321,132.9439787,0.007508532
285,1,0,0,0,0,12,1.21875,1,0.71,21.0875,0.51875,24.26493506,188.7318182,0.527645051
286,0.538461538461538,0.461538461538462,0.307692307692308,0.428571428571429,0.166666666666667,13,0.939393939393939,1,0.709,22.9242424242424,0.545454545454545,25.30950413,87.87485242,0
287,0.380952380952381,0.619047619047619,0.476190476190476,0.375,0.538461538461538,21,2.47668393782383,1,0.903,20.3108808290155,0.461139896373057,23.86980716,149.3674931,0.071672355
288,0.1875,0.8125,0.5,0.666666666666667,0.461538461538462,16,1.02777777777778,1,0.71,20.65,0.494623655913978,25.05861865,145.3447462,0.002730375
289,0.8,0.2,0.05,0,0.25,20,0.021978021978022,1,0.737,18.2252747252747,0.527472527472527,23.88636364,247.2803424,0.090102389
290,0.722222222222222,0.277777777777778,0.166666666666667,0.230769230769231,0,18,1.62612612612613,0,0.567,21.6936936936937,0.531531531531532,24.81399055,180.2301653,0.144709898
291,0.25,0.75,0.0833333333333333,0,0.111111111111111,12,1.18674698795181,1,0.564,21.710843373494,0.493975903614458,25.2731405,201.1127509,0.174061433
292,0.736842105263158,0.263157894736842,0,0,0,19,1.42541436464088,1,1.529,18.1988950276243,0.447513812154696,21.34935065,85.90460449,0.012286689
293,0.5,0.5,0.666666666666667,0.833333333333333,0.5,12,1.78333333333333,1,0.934,19.5722222222222,0.488888888888889,23.63371901,187.8892562,0
294,0.954545454545455,0.0454545454545454,0.0909090909090909,0.0952380952380952,0,22,1.31216931216931,1,0.343,18.0582010582011,0.513227513227513,26.23719008,133.3915152,0.023208191
295,0.888888888888889,0.111111111111111,0.222222222222222,0.21875,0.25,36,2.27602905569007,0,0.314377723970944,20.0242130750605,0.484261501210654,25.8243325692978,163.443978495157,0.383708649707022
296,0.846153846153846,0.153846153846154,0.0769230769230769,0,0.5,13,2.40837696335079,1,1.592,18.8429319371728,0.471204188481675,18.5405549,196.4654073,0.204778157
297,1,0,0.304347826086957,0.304347826086957,0,23,0.98314606741573,1,0.377,17.1404494382022,0.48876404494382,26.11263282,151.9763872,0.022525597
298,0.1,0.9,0.1,1,0,10,1.3515625,1,0.655,22.3203125,0.5078125,24.80643447,191.7007084,0.129692833
299,0.5,0.5,0.2,0.2,0.2,10,1,1,0.426,18.0747126436782,0.505747126436782,26.79108619,116.8350649,0
300,0.666666666666667,0.333333333333333,0.133333333333333,0,0.4,15,1.86875,1,0.233,23.425,0.54375,25.21239669,122.0512397,0.162457338
301,0.266666666666667,0.733333333333333,0.133333333333333,0,0.181818181818182,15,1.0969696969697,1,0.767,20.5939393939394,0.545454545454545,22.53524203,184.0008264,0.02116041
302,0.75,0.25,0.3,0.266666666666667,0.4,20,1.89473684210526,1,0.512,19.4678362573099,0.473684210526316,24.28116883,229.2693034,0.03003413
303,0.25,0.75,0.666666666666667,0.333333333333333,0.777777777777778,12,2.06010928961749,1,0.701,20.9562841530055,0.519125683060109,23.83158205,232.2042503,0.007508532
304,0.571428571428571,0.428571428571429,0.142857142857143,0,0.333333333333333,14,1,1,0.596,20.3465909090909,0.5,24.59008264,181.0264463,0.002730375
305,0.4,0.6,0.6,0.666666666666667,0.555555555555556,15,1.84574468085106,1,0.81,21.6489361702128,0.51063829787234,23.4502461725532,237.077231253191,0.004095563
306,0.333333333333333,0.666666666666667,0,0,0,21,1.04761904761905,1,0.556,20.2597402597403,0.519480519480519,25.4890791,205.0526564,0.253924915
307,0.142857142857143,0.857142857142857,0.19047619047619,0.333333333333333,0.166666666666667,21,1.09782608695652,1,1.773,17.679347826087,0.53804347826087,21.32933884,242.6487603,0.248464164
308,1,0,0,0,0,12,1.74358974358974,1,0.435,26.0576923076923,0.512820512820513,25.0506958926923,211.966583423077,0.080546075
309,1,0,0,0,0,10,0.218045112781955,1,0.841,21.9699248120301,0.473684210526316,23.63311688,193.0878394,0.115358362
310,0.105263157894737,0.894736842105263,0,0,0,19,1,1,0.643,21.4977168949772,0.502283105022831,25.09878788,42.16804408,0.01774744
311,0.7,0.3,0.2,0.142857142857143,0.333333333333333,20,3.35148514851485,0,1.262,19.3267326732673,0.514851485148515,22.40661157,160.2154959,0.959726962
312,0.363636363636364,0.636363636363636,0.0909090909090909,0.125,0.0714285714285714,22,0.931216931216931,1,0.473,18.5079365079365,0.507936507936508,25.67089728,133.4274498,0.02662116
313,0.75,0.25,0,0,0,12,1.10112359550562,1,0.435,23.4269662921348,0.183574879227053,26.11947314,177.9838843,0
314,0.692307692307692,0.307692307692308,0.0769230769230769,0,0.25,13,0,1,0.9,21.1411764705882,0.511764705882353,22.90539945,130.3409917,0
315,0.833333333333333,0.166666666666667,0.333333333333333,0.266666666666667,0.666666666666667,18,4,0,1.335,21.7608695652174,0.483695652173913,22.10844156,168.6818182,0.017064846
316,0.384615384615385,0.615384615384615,0.269230769230769,0.3,0.25,26,1.23333333333333,1,0.668,19.3055555555556,0.516666666666667,24.02924348,234.581691,0.009556314
317,0.517241379310345,0.482758620689655,0.0344827586206897,0,0.0714285714285714,29,3.96842105263158,0,1.27800526315789,18.5026315789474,0.462686567164179,23.7336533436316,47.4384732494474,0.183007005784211
318,0.68,0.32,0,0,0,25,1,1,0.45,17.6517857142857,0.459821428571429,26.13164109,135.8513577,0.064163823
319,0.888888888888889,0.111111111111111,0.444444444444444,0.5,0,9,1.34126984126984,1,0.419,21.6269841269841,0.46969696969697,24.81989374,169.6626328,0.561774744
320,0.722222222222222,0.277777777777778,0,0,0,18,0.198863636363636,1,0.957,18.9431818181818,0.534090909090909,23.5903778,214.0846517,0.002047782
321,0.375,0.625,0.25,0.333333333333333,0.2,8,1.03973509933775,0,0.621,20.5033112582781,0.516556291390728,25.08966942,42.18299882,0.019112628
322,0.0833333333333333,0.916666666666667,0.583333333333333,1,0.545454545454545,12,0.979166666666667,1,0.792,22.3333333333333,0.493055555555556,25.6848648855556,82.4860290861111,0.002047782
323,0.285714285714286,0.714285714285714,0.380952380952381,0.833333333333333,0.2,21,1,1,0.569,21.4025157232704,0.547169811320755,25.39828353,188.0972664,0.414334471
324,1,0,0,0,0,21,0.842639593908629,1,0.355,16.9137055837563,0.578680203045685,26.36253444,106.4235813,0.028668942
325,0.944444444444444,0.0555555555555556,0.111111111111111,0.0588235294117647,1,18,1.27551020408163,0,0.511,20.8571428571429,0.530612244897959,25.00283353,231.3348878,0.298293515
326,0.9375,0.0625,0.125,0.133333333333333,0,16,1,1,0.425,22.8944099378882,0.478260869565217,25.69043684,109.2254427,0.101706485
327,0.6875,0.3125,0.25,0.181818181818182,0.4,16,1.37714285714286,1,0.775,18.96,0.474285714285714,24.91557533,169.1271456,0.053242321
328,0.538461538461538,0.461538461538462,0,0,0,13,1.23312883435583,0,0.33,17.2883435582822,0.484662576687117,26.40921805,158.9875397,0.03890785
329,0.75,0.25,0.25,0.285714285714286,0.142857142857143,28,1.75103734439834,0,1.02,18.1618257261411,0.493775933609959,23.97249115,189.0708383,0.025938567
330,0.8,0.2,0.1,0.125,0,10,2.9609756097561,0,1.064,22.8146341463415,0.565853658536585,23.58198347,129.840551,0.048464164
331,0.75,0.25,0.833333333333333,0.777777777777778,1,12,1.56521739130435,1,0.985,21.5797101449275,0.536231884057971,23.21493506,204.0171192,0.000682594
332,0.777777777777778,0.222222222222222,0.111111111111111,0.142857142857143,0,9,2.16568047337278,1,0.929,21.4437869822485,0.526627218934911,23.77491145,149.579693,0.031399317
333,0.631578947368421,0.368421052631579,0.263157894736842,0.25,0.285714285714286,19,1.03664921465969,1,0.588,21.3507853403141,0.47,25.27692308,169.7857597,0.157679181
334,1,0,0,0,0,16,2.78064516129032,1,0.009,19.5483870967742,0.593548387096774,26.10519481,87.60177096,0.589078498
335,0.473684210526316,0.526315789473684,0.736842105263158,0.666666666666667,0.8,19,0.963855421686747,1,0.743,16.6686746987952,0.542168674698795,23.83896104,231.8181818,0.298976109
336,0.842105263157895,0.157894736842105,0.105263157894737,0.0625,0.333333333333333,19,0.414634146341463,1,0.718,17.5975609756098,0.257894736842105,24.09151515,154.4168595,0.002047782
337,0.933333333333333,0.0666666666666667,0.2,0.214285714285714,0,15,0.962962962962963,1,0.723,19.358024691358,0.425925925925926,22.28353011,192.172314,0.00887372
338,0.571428571428571,0.428571428571429,0.428571428571429,0.375,0.5,14,1,1,0.576,23.3027027027027,0.437837837837838,24.63089638,162.308328,0
339,0.25,0.75,0.6875,0.75,0.666666666666667,16,0.960352422907489,1,0.577,21.5726872246696,0.537444933920705,25.11955923,124.4650138,0.001365188
340,0.235294117647059,0.764705882352941,0,0,0,17,1.60810810810811,1,1.938,19.7342342342342,0.518018018018018,22.63311295,138.9674931,0.645733788
341,0.8125,0.1875,0.0625,0.0769230769230769,0,16,0.844827586206897,1,0.824,18.9195402298851,0.603448275862069,23.64504132,188.3858914,0.303754266
342,0.5,0.5,0.0555555555555556,0,0.111111111111111,18,1.07303370786517,1,0.41,19.0561797752809,0.528089887640449,26.22167832,135.2454545,0.06552901
343,0.947368421052632,0.0526315789473685,0.157894736842105,0.166666666666667,0,19,0,1,0.404,18.9897959183673,0.561224489795918,24.67012987,210.9987013,0.051877133
344,0.368421052631579,0.631578947368421,0.315789473684211,0.285714285714286,0.333333333333333,19,2.17073170731707,1,0.591,19.25,0.50609756097561,24.90873672,111.7142857,0.283276451
345,0.75,0.25,1,1,1,8,2.47770700636943,1,0.487,28.7324840764331,0.528662420382166,26.10354191,146.9864817,0.247098976
346,0.583333333333333,0.416666666666667,0.333333333333333,0.285714285714286,0.4,12,2.14204545454545,1,0.724,19.8011363636364,0.494318181818182,24.42927981,224.5230224,0.660068259
347,0.818181818181818,0.181818181818182,0.272727272727273,0.111111111111111,1,11,0.934131736526946,1,0.567,21.562874251497,0.526946107784431,24.80324675,169.0082645,0.207508532
348,0.909090909090909,0.0909090909090909,0,0,0,11,2.67320261437908,1,0.396,26.2091503267974,0.562091503267974,24.01139315,229.2459858,0.593856655
349,0.368421052631579,0.631578947368421,0.684210526315789,0.857142857142857,0.583333333333333,19,0.988505747126437,1,0.679,18.6724137931034,0.540229885057471,24.47916175,214.5383707,0.270989761
350,0.2,0.8,0.7,0.75,0.6875,20,1.13636363636364,1,0.463,16.9318181818182,0.454545454545455,25.04775679,218.607438,0.0778157
351,0.75,0.25,0.1,0.0666666666666667,0.2,20,0.866071428571429,0,0.415,22.1473214285714,0.513392857142857,24.08099174,243.0591499,0.060068259
352,0,1,0.368421052631579,0,0.368421052631579,19,0.484076433121019,1,1.23,17.8089171974522,0.528662420382166,20.33376623,162.8331759,0.004095563
353,0.272727272727273,0.727272727272727,0,0,0,11,3.84803921568627,0,0.8,20.2303921568627,0.519607843137255,21.80177096,180.9031877,0.484641638
354,0.615384615384615,0.384615384615385,0.384615384615385,0.25,0.6,13,1,1,0.732,21.4502923976608,0.578947368421053,24.75578512,192.9628099,0.081228669
355,0.333333333333333,0.666666666666667,0.0666666666666667,0,0.1,15,1.8031914893617,1,1.353,20.3882978723404,0.5,20.13813459,197.0726682,0
356,0.117647058823529,0.882352941176471,0.176470588235294,0.5,0.133333333333333,17,1.21818181818182,1,0.876,17.7575757575758,0.539393939393939,23.6408598363636,241.299741248485,0.248464164
357,0.4,0.6,0.5,0.25,0.666666666666667,10,1.29370629370629,1,0.603,20.6573426573427,0.517482517482518,24.34005086,193.1907184,0.002730375
358,0.294117647058824,0.705882352941176,0.588235294117647,0.2,0.75,17,1.27745664739884,0,0.385,20.7109826589595,0.497109826589595,25.87727273,57.12210744,0.042320819
359,0.416666666666667,0.583333333333333,0.166666666666667,0.4,0,12,2.11290322580645,1,0.774,19.2741935483871,0.56989247311828,24.71823691,199.8495868,0.653924915
360,0.285714285714286,0.714285714285714,0.571428571428571,0.75,0.5,14,0.929203539823009,0,0.46,19.9070796460177,0.513274336283186,25.2938843,199.0969697,0.159726962
361,0.888888888888889,0.111111111111111,0.444444444444444,0.375,1,9,3.53846153846154,0,0.3,21.8782051282051,0.544871794871795,24.83471074,19.30188902,0.484641638
362,0.5625,0.4375,0.0625,0,0.142857142857143,16,1,1,0.619,19.4540229885057,0.511494252873563,25.15472255,214.8069658,0.002047782
363,0.444444444444444,0.555555555555556,0,0,0,9,1.17714285714286,1,1.603,21.2571428571429,0.531428571428571,19.27663912,199.7833058,0.690784983
364,0.833333333333333,0.166666666666667,0,0,0,18,0.668421052631579,1,0.31,17.4421052631579,0.484210526315789,26.28990555,175.920307,0.010921502
365,0.28,0.72,0.04,0,0.0555555555555556,25,1.05357142857143,1,0.531,17.2410714285714,0.464285714285714,25.29521842,194.5283353,0.345392491
366,0.777777777777778,0.222222222222222,0.555555555555556,0.571428571428571,0.5,18,1.98728813559322,1,0.335,22.4449152542373,0.474576271186441,25.56818182,221.8226682,0.118771331
367,0.470588235294118,0.529411764705882,0.117647058823529,0.125,0.111111111111111,17,0.817733990147783,1,0.427,18.7487684729064,0.536945812807882,26.66387249,181.6794569,0.002047782
368,0.923076923076923,0.0769230769230769,0.615384615384615,0.666666666666667,0,13,1,1,0.446,20.7161290322581,0.490322580645161,25.68016529,114.1847934,0.234812287
369,0.9,0.1,0.4,0.333333333333333,1,10,0.965909090909091,1,0.344,22.8579545454545,0.403409090909091,26.06883117,107.2135773,0.146757679
370,1,0,0.0434782608695652,0.0434782608695652,0,23,0.0479041916167665,1,0.692,17.2455089820359,0.55688622754491,24.6516675476048,237.895464234731,0.050511945
371,0.210526315789474,0.789473684210526,0.631578947368421,0.5,0.666666666666667,19,0.929347826086957,0,0.537,18.4673913043478,0.53804347826087,24.5983236913043,223.102540892935,0.269624573
372,0.666666666666667,0.333333333333333,0.444444444444444,0.333333333333333,0.666666666666667,18,0.5,1,0.371,18.8055555555556,0.5,26.08719008,70.28057851,0.004778157
373,0.2,0.8,0.2,0.333333333333333,0.166666666666667,15,1,1,0.567,18.8136363636364,0.468181818181818,24.81363636,226.6428571,0.001365188
374,0.714285714285714,0.285714285714286,0.785714285714286,0.9,0.5,14,1.18274111675127,1,0.306,23.0456852791878,0.446700507614213,25.51818182,206.1727273,0.002730375
375,0.785714285714286,0.214285714285714,0.142857142857143,0.181818181818182,0,14,1.00534759358289,0,0.314,19.2085561497326,0.502673796791444,25.30519481,222.8402597,0.120819113
376,0.75,0.25,0,0,0,20,1.03314917127072,1,0.364,18.0276243093923,0.475138121546961,26.40749705,103.029575,0.111945392
377,1,0,0,0,0,19,0.0449438202247191,1,0.472,20.1123595505618,0.51123595505618,24.89775679,245.8266824,0.105802048
378,0.368421052631579,0.631578947368421,0.368421052631579,0.285714285714286,0.416666666666667,19,2.19597989949749,0,1.021,19.1306532663317,0.527363184079602,24.97609209,113.6328217,0.296928328
379,0.761904761904762,0.238095238095238,0.0952380952380952,0.0625,0.2,21,2.69021739130435,0,0.789,20.5815217391304,0.527173913043478,22.52007084,172.3239079,0.876450512
380,0.916666666666667,0.0833333333333334,0.0833333333333333,0.0909090909090909,0,12,0.888888888888889,1,0.376,22.1444444444444,0.5,26.12095632,150.4927391,0.060750853
381,0,1,0.666666666666667,0,0.666666666666667,6,1.76646706586826,0,0.543,20.502994011976,0.425149700598802,25.5890791,189.1121606,0.089419795
382,0.722222222222222,0.277777777777778,0.555555555555556,0.538461538461538,0.6,18,0.916666666666667,1,0.487,20.203125,0.453125,25.16015348,100.9651712,0.012969283
383,0.625,0.375,0.25,0.2,0.333333333333333,16,0.808219178082192,1,0.297,20.2260273972603,0.527397260273973,24.81582054,246.640791,0.164505119
384,0.521739130434783,0.478260869565217,0.521739130434783,0.5,0.545454545454545,23,1.23618090452261,1,0.904,17.8090452261307,0.547738693467337,23.17792208,225.1168831,0.049829352
385,0.294117647058824,0.705882352941176,0.411764705882353,0,0.583333333333333,34,3.62464985994398,0,0.536,18.7899159663866,0.534626038781163,24.6308172858543,182.933486970308,0.0769380790952381
386,0.384615384615385,0.615384615384615,0.0769230769230769,0,0.125,13,0.906040268456376,1,0.505,18.6510067114094,0.496644295302013,25.48831169,219.3655844,0.016382253
387,0.444444444444444,0.555555555555556,0.833333333333333,0.875,0.8,18,1.09714285714286,1,1.198,17.6571428571429,0.56,22.84732782,117.2264463,0.002730375
388,0.631578947368421,0.368421052631579,0.315789473684211,0.25,0.428571428571429,19,1.70612244897959,0,0.629,18.8081632653061,0.506122448979592,25.40041322,164.9799292,0.341296928
389,0.95,0.05,0.05,0,1,20,0,1,0.858,21.625,0.529761904761905,23.25519481,229.4733766,0.088737201
390,0.380952380952381,0.619047619047619,0.19047619047619,0.25,0.153846153846154,21,1,1,0.655,21.8619047619048,0.523809523809524,24.89917355,51.35950413,0
391,0.529411764705882,0.470588235294118,0.294117647058824,0.333333333333333,0.25,17,0.246153846153846,1,0.38,19.4153846153846,0.482051282051282,24.27207792,219.3792208,0.036177474
392,0.916666666666667,0.0833333333333334,0.666666666666667,0.636363636363636,1,12,1.4031007751938,1,0.419,22.1937984496124,0.511627906976744,25.13862259,104.0690909,0.56996587
393,0.428571428571429,0.571428571428571,0,0,0,14,2.14545454545455,1,1.012,21.9939393939394,0.575757575757576,21.68506887,80.59035813,0.255972696
394,0.333333333333333,0.666666666666667,0,0,0,21,2.68817204301075,1,1.778,17.8817204301075,0.510752688172043,18.681293876129,184.554622851075,0.223890785
395,0.6875,0.3125,0.0625,0.0909090909090909,0,16,0.196428571428571,1,0.578,21.3154761904762,0.553571428571429,25.39940968,198.6691854,0.101023891
396,0.444444444444444,0.555555555555556,0.111111111111111,0.25,0,9,0.768211920529801,1,0.486,21.2582781456954,0.556291390728477,26.4771988399338,170.395180268874,0.009556314
397,0.894736842105263,0.105263157894737,0,0,0,19,0.595454545454545,1,0.567,18.5590909090909,0.472727272727273,25.32237308,163.0785124,0.010238908
398,0.6,0.4,0.4,0.222222222222222,0.666666666666667,15,2.31550802139037,1,1.166,17.6042780748663,0.508021390374332,24.3201889,115.5089728,0.804778157
399,0.833333333333333,0.166666666666667,0.5,0.4,1,6,0.63302752293578,1,0.744,28.4403669724771,0.458715596330275,25.10413223,121.3852511,0
400,0.478260869565217,0.521739130434783,0.347826086956522,0.363636363636364,0.333333333333333,23,0.824561403508772,1,1.117,20.4619883040936,0.502923976608187,20.36760331,192.4728375,0.963139932
401,0.461538461538462,0.538461538461538,0.192307692307692,0.166666666666667,0.214285714285714,26,1.18090452261307,1,0.884,19.1356783919598,0.542713567839196,24.6666738676382,187.3551089201,0.155631399
402,0.1,0.9,0.1,0,0.111111111111111,10,0.968354430379747,1,0.755,19.8164556962025,0.518987341772152,24.26478067,229.4151303,0.205460751
403,0.777777777777778,0.222222222222222,0.666666666666667,0.714285714285714,0.5,9,1.34224598930481,1,0.94,20.6631016042781,0.53475935828877,23.32272727,231.7461629,0.007508532
404,0.909090909090909,0.0909090909090909,0,0,0,11,0.915730337078652,1,0.455,20.0955056179775,0.51685393258427,26.56573427,190.1830261,0.000682594
405,0.72,0.28,0,0,0,25,3.96153846153846,0,1.242,18.2019230769231,0.538461538461538,22.4585124,148.4584022,0.154266212
406,0.769230769230769,0.230769230769231,0.153846153846154,0,0.666666666666667,13,0.808641975308642,1,0.843,24.858024691358,0.558282208588957,24.91924439,127.3636364,0.00887372
407,0.375,0.625,0.625,0.333333333333333,0.8,8,1.78723404255319,1,1.025,22.2340425531915,0.539007092198582,23.26688312,201.8376623,0.036177474
408,0.6875,0.3125,0.25,0.272727272727273,0.2,16,1.17543859649123,1,0.679,19.8947368421053,0.526315789473684,25.2985242,157.8707202,0.382935154
409,0.636363636363636,0.363636363636364,0.181818181818182,0.214285714285714,0.125,22,0.0689655172413793,1,0.353,22.8850574712644,0.522988505747126,25.76676505,121.6199528,0.061433447
410,0.05,0.95,0,0,0,20,0.919786096256685,1,1.671,17.7486631016043,0.540106951871658,20.12949778,162.6322314,0.15221843
411,0.666666666666667,0.333333333333333,0.388888888888889,0.333333333333333,0.5,18,1.14689265536723,1,0.718,19.4237288135593,0.451977401129944,24.31635183,231.5301063,0.546075085
412,0.363636363636364,0.636363636363636,0.636363636363636,0.5,0.714285714285714,11,0.579617834394904,1,0.706,22.7006369426752,0.45679012345679,25.10005903,146.3606848,0
413,0,1,0,0,0,24,0.325301204819277,1,1.774,17.3855421686747,0.536144578313253,20.91275089,112.375915,0.010238908
414,0.388888888888889,0.611111111111111,0.222222222222222,0,0.363636363636364,18,1.12258064516129,1,0.383,21.0709677419355,0.503225806451613,26.60731995,190.1404959,0
415,0.333333333333333,0.666666666666667,0,0,0,9,0.898648648648649,1,0.455,20.9797297297297,0.554054054054054,25.82337662,59.48547816,0.023890785
